module chatroom

go 1.12

require (
	github.com/labstack/echo v3.3.10+incompatible
	github.com/labstack/gommon v0.3.0 // indirect
	golang.org/x/crypto v0.0.0-20190923035154-9ee001bba392 // indirect
)
